[gd_resource type="SpatialMaterial" load_steps=3 format=2]

[sub_resource type="Image" id=1]
data = {
"data": PoolByteArray( 75, 75, 75, 255, 75, 75, 75, 255, 75, 75, 75, 255, 75, 75, 75, 255, 75, 75, 75, 255, 75, 75, 75, 255, 75, 75, 75, 255, 75, 75, 75, 255, 75, 75, 75, 255, 75, 75, 75, 255, 75, 75, 75, 255, 75, 75, 75, 255, 75, 75, 75, 255, 75, 75, 75, 255, 75, 75, 75, 255, 75, 75, 75, 255, 75, 75, 75, 255, 75, 75, 75, 255, 75, 75, 75, 255, 75, 75, 75, 255, 75, 75, 75, 255, 75, 75, 75, 255, 75, 75, 75, 255, 75, 75, 75, 255, 75, 75, 75, 255, 75, 75, 75, 255, 75, 75, 75, 255, 75, 75, 75, 255, 75, 75, 75, 255, 75, 75, 75, 255, 75, 75, 75, 255, 75, 75, 75, 255, 75, 75, 75, 255, 75, 75, 75, 255, 75, 75, 75, 255, 75, 75, 75, 255, 75, 75, 75, 255, 75, 75, 75, 255, 75, 75, 75, 255, 75, 75, 75, 255, 75, 75, 75, 255, 75, 75, 75, 255, 75, 75, 75, 255, 75, 75, 75, 255, 75, 75, 75, 255, 75, 75, 75, 255, 75, 75, 75, 255, 75, 75, 75, 255, 75, 75, 75, 255, 75, 75, 75, 255, 75, 75, 75, 255, 75, 75, 75, 255, 75, 75, 75, 255, 75, 75, 75, 255, 75, 75, 75, 255, 75, 75, 75, 255, 75, 75, 75, 255, 75, 75, 75, 255, 75, 75, 75, 255, 75, 75, 75, 255, 75, 75, 75, 255, 75, 75, 75, 255, 75, 75, 75, 255, 75, 75, 75, 255, 75, 75, 75, 255, 75, 75, 75, 255, 75, 75, 75, 255, 75, 75, 75, 255, 75, 75, 75, 255, 75, 75, 75, 255, 75, 75, 75, 255, 75, 75, 75, 255, 75, 75, 75, 255, 75, 75, 75, 255, 75, 75, 75, 255, 75, 75, 75, 255, 75, 75, 75, 255, 75, 75, 75, 255, 75, 75, 75, 255, 75, 75, 75, 255, 75, 75, 75, 255, 75, 75, 75, 255, 75, 75, 75, 255, 75, 75, 75, 255, 75, 75, 75, 255, 75, 75, 75, 255, 75, 75, 75, 255, 75, 75, 75, 255, 75, 75, 75, 255, 75, 75, 75, 255, 75, 75, 75, 255, 75, 75, 75, 255, 75, 75, 75, 255, 75, 75, 75, 255, 75, 75, 75, 255, 75, 75, 75, 255, 75, 75, 75, 255, 75, 75, 75, 255, 75, 75, 75, 255, 75, 75, 75, 255, 75, 75, 75, 255, 75, 75, 75, 255, 75, 75, 75, 255, 75, 75, 75, 255, 75, 75, 75, 255, 75, 75, 75, 255, 75, 75, 75, 255, 75, 75, 75, 255, 75, 75, 75, 255, 75, 75, 75, 255, 75, 75, 75, 255, 75, 75, 75, 255, 75, 75, 75, 255, 75, 75, 75, 255, 75, 75, 75, 255, 75, 75, 75, 255, 75, 75, 75, 255, 75, 75, 75, 255, 75, 75, 75, 255, 75, 75, 75, 255, 75, 75, 75, 255, 75, 75, 75, 255, 75, 75, 75, 255, 75, 75, 75, 255, 75, 75, 75, 255, 75, 75, 75, 255, 75, 75, 75, 255, 75, 75, 75, 255, 75, 75, 75, 255, 75, 75, 75, 255, 75, 75, 75, 255, 75, 75, 75, 255, 75, 75, 75, 255, 75, 75, 75, 255, 75, 75, 75, 255, 75, 75, 75, 255, 75, 75, 75, 255, 75, 75, 75, 255, 75, 75, 75, 255, 75, 75, 75, 255, 75, 75, 75, 255, 75, 75, 75, 255, 75, 75, 75, 255, 75, 75, 75, 255, 75, 75, 75, 255, 75, 75, 75, 255, 75, 75, 75, 255, 75, 75, 75, 255, 75, 75, 75, 255, 75, 75, 75, 255, 75, 75, 75, 255, 75, 75, 75, 255, 75, 75, 75, 255, 75, 75, 75, 255, 75, 75, 75, 255, 75, 75, 75, 255, 75, 75, 75, 255, 75, 75, 75, 255, 75, 75, 75, 255, 75, 75, 75, 255, 75, 75, 75, 255, 75, 75, 75, 255, 75, 75, 75, 255, 75, 75, 75, 255, 75, 75, 75, 255, 75, 75, 75, 255, 75, 75, 75, 255, 75, 75, 75, 255, 75, 75, 75, 255, 75, 75, 75, 255, 75, 75, 75, 255, 75, 75, 75, 255, 75, 75, 75, 255, 75, 75, 75, 255, 75, 75, 75, 255, 75, 75, 75, 255, 75, 75, 75, 255, 75, 75, 75, 255, 75, 75, 75, 255, 75, 75, 75, 255, 75, 75, 75, 255, 75, 75, 75, 255, 75, 75, 75, 255, 75, 75, 75, 255, 75, 75, 75, 255, 75, 75, 75, 255, 75, 75, 75, 255, 75, 75, 75, 255, 75, 75, 75, 255, 75, 75, 75, 255, 75, 75, 75, 255, 75, 75, 75, 255, 75, 75, 75, 255, 75, 75, 75, 255, 75, 75, 75, 255, 75, 75, 75, 255, 75, 75, 75, 255, 75, 75, 75, 255, 75, 75, 75, 255, 75, 75, 75, 255, 75, 75, 75, 255, 75, 75, 75, 255, 75, 75, 75, 255, 75, 75, 75, 255, 75, 75, 75, 255, 75, 75, 75, 255, 75, 75, 75, 255, 75, 75, 75, 255, 75, 75, 75, 255, 75, 75, 75, 255, 75, 75, 75, 255, 75, 75, 75, 255, 75, 75, 75, 255, 75, 75, 75, 255, 75, 75, 75, 255, 75, 75, 75, 255, 75, 75, 75, 255, 75, 75, 75, 255, 75, 75, 75, 255, 75, 75, 75, 255, 75, 75, 75, 255, 75, 75, 75, 255, 75, 75, 75, 255, 75, 75, 75, 255, 75, 75, 75, 255, 75, 75, 75, 255, 75, 75, 75, 255, 75, 75, 75, 255, 75, 75, 75, 255, 75, 75, 75, 255, 75, 75, 75, 255, 75, 75, 75, 255, 75, 75, 75, 255, 75, 75, 75, 255, 75, 75, 75, 255, 75, 75, 75, 255, 75, 75, 75, 255, 75, 75, 75, 255, 75, 75, 75, 255, 75, 75, 75, 255, 75, 75, 75, 255, 75, 75, 75, 255, 75, 75, 75, 255, 75, 75, 75, 255, 75, 75, 75, 255, 75, 75, 75, 255, 75, 75, 75, 255, 75, 75, 75, 255, 239, 191, 158, 255, 132, 15, 15, 255, 105, 55, 19, 255, 226, 165, 74, 255, 106, 138, 117, 255, 196, 147, 13, 255, 56, 56, 56, 255, 0, 0, 0, 0 ),
"format": "RGBA8",
"height": 1,
"mipmaps": false,
"width": 256
}

[sub_resource type="ImageTexture" id=2]
flags = 19
flags = 19
image = SubResource( 1 )
size = Vector2( 256, 1 )

[resource]
resource_name = "palette"
params_cull_mode = 2
albedo_texture = SubResource( 2 )
emission_enabled = true
emission = Color( 0, 0, 0, 1 )
emission_energy = 1.0
emission_operator = 0
emission_on_uv2 = false
