[gd_scene load_steps=3 format=2]

[ext_resource path="res://assets/theme.tres" type="Theme" id=2]
[ext_resource path="res://components/building_uis/_columns/produces/produces.gd" type="Script" id=3]

[node name="Produces" type="VBoxContainer"]
margin_right = 600.0
margin_bottom = 224.0
rect_min_size = Vector2( 600, 0 )
theme = ExtResource( 2 )
custom_constants/separation = 20
script = ExtResource( 3 )
__meta__ = {
"_edit_use_anchors_": false
}

[node name="Label" type="Label" parent="."]
margin_right = 600.0
margin_bottom = 36.0
mouse_filter = 0
size_flags_horizontal = 3
text = "Produces one of:"

[node name="MarginContainer" type="MarginContainer" parent="."]
margin_top = 56.0
margin_right = 600.0
margin_bottom = 230.0
custom_constants/margin_left = 25

[node name="VBoxContainer" type="VBoxContainer" parent="MarginContainer"]
margin_left = 25.0
margin_right = 600.0
margin_bottom = 174.0
custom_constants/separation = 10
