[gd_scene load_steps=4 format=2]

[ext_resource path="res://assets/buildings/mining_hub/mining_hub_preview.png" type="Texture" id=1]
[ext_resource path="res://assets/theme.tres" type="Theme" id=2]
[ext_resource path="res://components/win/building_stat.gd" type="Script" id=3]

[node name="BuildingStat" type="HBoxContainer"]
anchor_right = 1.0
anchor_bottom = 1.0
margin_right = -1770.0
margin_bottom = -1016.0
size_flags_horizontal = 3
size_flags_vertical = 8
theme = ExtResource( 2 )
custom_constants/separation = 25
script = ExtResource( 3 )
__meta__ = {
"_edit_use_anchors_": false
}

[node name="Image" type="TextureRect" parent="."]
margin_right = 64.0
margin_bottom = 64.0
rect_min_size = Vector2( 64, 64 )
texture = ExtResource( 1 )
expand = true
stretch_mode = 6

[node name="Label" type="Label" parent="."]
margin_left = 89.0
margin_right = 150.0
margin_bottom = 64.0
size_flags_horizontal = 3
size_flags_vertical = 3
text = "999"
align = 2
valign = 1
