[gd_scene load_steps=6 format=2]

[ext_resource path="res://assets/ui/firework_particle.png" type="Texture" id=1]
[ext_resource path="res://components/win/firework_blast.gd" type="Script" id=2]

[sub_resource type="Curve" id=1]
max_value = 100.0
_data = [ Vector2( 0.910596, 0 ), 0.0, 636.206, 0, 0, Vector2( 1, 27.3864 ), -61.0101, 0.0, 0, 0 ]

[sub_resource type="CurveTexture" id=2]
curve = SubResource( 1 )

[sub_resource type="ParticlesMaterial" id=3]
lifetime_randomness = 0.4
emission_shape = 1
emission_sphere_radius = 10.0
flag_disable_z = true
direction = Vector3( 1, 1, 0 )
spread = 180.0
gravity = Vector3( 0, 25, 0 )
initial_velocity = 70.0
initial_velocity_random = 0.2
angular_velocity = 25.0
angular_velocity_random = 1.0
orbit_velocity = 0.0
orbit_velocity_random = 0.0
damping = 20.0
damping_random = 0.1
damping_curve = SubResource( 2 )
color = Color( 0.9, 0.45, 0.888632, 1 )
hue_variation = 1.0
hue_variation_random = 0.03

[node name="FireworkBlast" type="Particles2D"]
position = Vector2( 1059.17, 283.621 )
scale = Vector2( 3, 3 )
amount = 100
lifetime = 1.5
explosiveness = 1.0
randomness = 0.1
process_material = SubResource( 3 )
texture = ExtResource( 1 )
script = ExtResource( 2 )

[node name="Timer" type="Timer" parent="."]
wait_time = 1.5
