[gd_scene load_steps=7 format=2]

[ext_resource path="res://components/well_viewer/well_world.tscn" type="PackedScene" id=1]
[ext_resource path="res://assets/dialogue_title.tres" type="DynamicFont" id=2]
[ext_resource path="res://components/well_viewer/well_viewer.gd" type="Script" id=3]

[sub_resource type="StyleBoxEmpty" id=1]

[sub_resource type="Theme" id=2]
PanelContainer/styles/panel = SubResource( 1 )

[sub_resource type="Theme" id=3]
default_font = ExtResource( 2 )

[node name="WellViewer" type="Control"]
anchor_left = 0.73
anchor_right = 1.0
anchor_bottom = 1.0
grow_horizontal = 0
size_flags_horizontal = 3
theme = SubResource( 2 )
script = ExtResource( 3 )
__meta__ = {
"_edit_use_anchors_": false
}

[node name="WellWorld" parent="." instance=ExtResource( 1 )]
anchor_bottom = 1.0
grow_horizontal = 0

[node name="Label" type="Label" parent="."]
anchor_left = 1.0
anchor_right = 1.0
anchor_bottom = 10.0
margin_left = -512.0
margin_top = 10.0
theme = SubResource( 3 )
custom_colors/font_color = Color( 1, 1, 1, 1 )
custom_colors/font_outline_modulate = Color( 0, 0, 0, 1 )
text = "Depth: 17m"
align = 1
