[gd_resource type="DynamicFont" load_steps=2 format=2]

[ext_resource path="res://assets/fonts/Oxanium-SemiBold.ttf" type="DynamicFontData" id=1]

[resource]
size = 50
outline_size = 6
extra_spacing_char = 4
font_data = ExtResource( 1 )
